{
  "href": "https://api.spotify.com/v1/users/ddelapp/playlists/0HM6i5SUouetTNY9dslhtC/tracks?offset=0&limit=3",
  "items": [
    {
      "added_at": "2014-08-19T22:02:35Z",
      "added_by": {
        "external_urls": {
          "spotify": "https://open.spotify.com/user/ddelapp"
        },
        "href": "https://api.spotify.com/v1/users/ddelapp",
        "id": "ddelapp",
        "type": "user",
        "uri": "spotify:user:ddelapp"
      },
      "is_local": false,
      "primary_color": null,
      "track": {
        "album": {
          "album_type": "album",
          "artists": [
            {
              "external_urls": {
                "spotify": "https://open.spotify.com/artist/1LgVvBvmQm48GExZDH322C"
              },
              "href": "https://api.spotify.com/v1/artists/1LgVvBvmQm48GExZDH322C",
              "id": "1LgVvBvmQm48GExZDH322C",
              "name": "Good Knight Productions",
              "type": "artist",
              "uri": "spotify:artist:1LgVvBvmQm48GExZDH322C"
            }
          ],
          "available_markets": [
            "AD",
            "AR",
            "AT",
            "AU",
            "BE",
            "BG",
            "BO",
            "BR",
            "CA",
            "CH",
            "CL",
            "CO",
            "CR",
            "CY",
            "CZ",
            "DE",
            "DK",
            "DO",
            "EC",
            "EE",
            "ES",
            "FI",
            "FR",
            "GB",
            "GR",
            "GT",
            "HK",
            "HN",
            "HU",
            "ID",
            "IE",
            "IL",
            "IS",
            "IT",
            "JP",
            "LI",
            "LT",
            "LU",
            "LV",
            "MC",
            "MT",
            "MX",
            "MY",
            "NI",
            "NL",
            "NO",
            "NZ",
            "PA",
            "PE",
            "PH",
            "PL",
            "PT",
            "PY",
            "RO",
            "SE",
            "SG",
            "SK",
            "SV",
            "TH",
            "TR",
            "TW",
            "US",
            "UY",
            "VN",
            "ZA"
          ],
          "external_urls": {
            "spotify": "https://open.spotify.com/album/0oI62zS46c7zIHMj7BJyBv"
          },
          "href": "https://api.spotify.com/v1/albums/0oI62zS46c7zIHMj7BJyBv",
          "id": "0oI62zS46c7zIHMj7BJyBv",
          "images": [
            {
              "height": 640,
              "url": "https://i.scdn.co/image/536de2f53ecb1a188d09034b20199a2a97c9b361",
              "width": 640
            },
            {
              "height": 300,
              "url": "https://i.scdn.co/image/417f84c85ef577c39b115fc091342302f87e3142",
              "width": 300
            },
            {
              "height": 64,
              "url": "https://i.scdn.co/image/2cc4b802c9eb0b30473fe0ac987e975f82a3e5b0",
              "width": 64
            }
          ],
          "name": "Donkey Kong Country Vol.1",
          "release_date": "2014-07-25",
          "release_date_precision": "day",
          "type": "album",
          "uri": "spotify:album:0oI62zS46c7zIHMj7BJyBv"
        },
        "artists": [
          {
            "external_urls": {
              "spotify": "https://open.spotify.com/artist/1LgVvBvmQm48GExZDH322C"
            },
            "href": "https://api.spotify.com/v1/artists/1LgVvBvmQm48GExZDH322C",
            "id": "1LgVvBvmQm48GExZDH322C",
            "name": "Good Knight Productions",
            "type": "artist",
            "uri": "spotify:artist:1LgVvBvmQm48GExZDH322C"
          }
        ],
        "available_markets": [
          "AD",
          "AR",
          "AT",
          "AU",
          "BE",
          "BG",
          "BO",
          "BR",
          "CA",
          "CH",
          "CL",
          "CO",
          "CR",
          "CY",
          "CZ",
          "DE",
          "DK",
          "DO",
          "EC",
          "EE",
          "ES",
          "FI",
          "FR",
          "GB",
          "GR",
          "GT",
          "HK",
          "HN",
          "HU",
          "ID",
          "IE",
          "IL",
          "IS",
          "IT",
          "JP",
          "LI",
          "LT",
          "LU",
          "LV",
          "MC",
          "MT",
          "MX",
          "MY",
          "NI",
          "NL",
          "NO",
          "NZ",
          "PA",
          "PE",
          "PH",
          "PL",
          "PT",
          "PY",
          "RO",
          "SE",
          "SG",
          "SK",
          "SV",
          "TH",
          "TR",
          "TW",
          "US",
          "UY",
          "VN",
          "ZA"
        ],
        "disc_number": 1,
        "duration_ms": 122960,
        "episode": false,
        "explicit": false,
        "external_ids": {
          "isrc": "USE830930839"
        },
        "external_urls": {
          "spotify": "https://open.spotify.com/track/325S3FzTRw7jWAWup9n2vF"
        },
        "href": "https://api.spotify.com/v1/tracks/325S3FzTRw7jWAWup9n2vF",
        "id": "325S3FzTRw7jWAWup9n2vF",
        "is_local": false,
        "name": "DKC - Theme",
        "popularity": 34,
        "preview_url": "https://p.scdn.co/mp3-preview/0d236decdec80eb8f3400e64021ae73f5440afa7?cid=774b29d4f13844c495f206cafdad9c86",
        "track": true,
        "track_number": 1,
        "type": "track",
        "uri": "spotify:track:325S3FzTRw7jWAWup9n2vF"
      },
      "video_thumbnail": {
        "url": null
      }
    },
    {
      "added_at": "2014-08-19T22:02:35Z",
      "added_by": {
        "external_urls": {
          "spotify": "https://open.spotify.com/user/ddelapp"
        },
        "href": "https://api.spotify.com/v1/users/ddelapp",
        "id": "ddelapp",
        "type": "user",
        "uri": "spotify:user:ddelapp"
      },
      "is_local": false,
      "primary_color": null,
      "track": {
        "album": {
          "album_type": "album",
          "artists": [
            {
              "external_urls": {
                "spotify": "https://open.spotify.com/artist/1LgVvBvmQm48GExZDH322C"
              },
              "href": "https://api.spotify.com/v1/artists/1LgVvBvmQm48GExZDH322C",
              "id": "1LgVvBvmQm48GExZDH322C",
              "name": "Good Knight Productions",
              "type": "artist",
              "uri": "spotify:artist:1LgVvBvmQm48GExZDH322C"
            }
          ],
          "available_markets": [
            "AD",
            "AR",
            "AT",
            "AU",
            "BE",
            "BG",
            "BO",
            "BR",
            "CA",
            "CH",
            "CL",
            "CO",
            "CR",
            "CY",
            "CZ",
            "DE",
            "DK",
            "DO",
            "EC",
            "EE",
            "ES",
            "FI",
            "FR",
            "GB",
            "GR",
            "GT",
            "HK",
            "HN",
            "HU",
            "ID",
            "IE",
            "IL",
            "IS",
            "IT",
            "JP",
            "LI",
            "LT",
            "LU",
            "LV",
            "MC",
            "MT",
            "MX",
            "MY",
            "NI",
            "NL",
            "NO",
            "NZ",
            "PA",
            "PE",
            "PH",
            "PL",
            "PT",
            "PY",
            "RO",
            "SE",
            "SG",
            "SK",
            "SV",
            "TH",
            "TR",
            "TW",
            "US",
            "UY",
            "VN",
            "ZA"
          ],
          "external_urls": {
            "spotify": "https://open.spotify.com/album/0oI62zS46c7zIHMj7BJyBv"
          },
          "href": "https://api.spotify.com/v1/albums/0oI62zS46c7zIHMj7BJyBv",
          "id": "0oI62zS46c7zIHMj7BJyBv",
          "images": [
            {
              "height": 640,
              "url": "https://i.scdn.co/image/536de2f53ecb1a188d09034b20199a2a97c9b361",
              "width": 640
            },
            {
              "height": 300,
              "url": "https://i.scdn.co/image/417f84c85ef577c39b115fc091342302f87e3142",
              "width": 300
            },
            {
              "height": 64,
              "url": "https://i.scdn.co/image/2cc4b802c9eb0b30473fe0ac987e975f82a3e5b0",
              "width": 64
            }
          ],
          "name": "Donkey Kong Country Vol.1",
          "release_date": "2014-07-25",
          "release_date_precision": "day",
          "type": "album",
          "uri": "spotify:album:0oI62zS46c7zIHMj7BJyBv"
        },
        "artists": [
          {
            "external_urls": {
              "spotify": "https://open.spotify.com/artist/1LgVvBvmQm48GExZDH322C"
            },
            "href": "https://api.spotify.com/v1/artists/1LgVvBvmQm48GExZDH322C",
            "id": "1LgVvBvmQm48GExZDH322C",
            "name": "Good Knight Productions",
            "type": "artist",
            "uri": "spotify:artist:1LgVvBvmQm48GExZDH322C"
          }
        ],
        "available_markets": [
          "AD",
          "AR",
          "AT",
          "AU",
          "BE",
          "BG",
          "BO",
          "BR",
          "CA",
          "CH",
          "CL",
          "CO",
          "CR",
          "CY",
          "CZ",
          "DE",
          "DK",
          "DO",
          "EC",
          "EE",
          "ES",
          "FI",
          "FR",
          "GB",
          "GR",
          "GT",
          "HK",
          "HN",
          "HU",
          "ID",
          "IE",
          "IL",
          "IS",
          "IT",
          "JP",
          "LI",
          "LT",
          "LU",
          "LV",
          "MC",
          "MT",
          "MX",
          "MY",
          "NI",
          "NL",
          "NO",
          "NZ",
          "PA",
          "PE",
          "PH",
          "PL",
          "PT",
          "PY",
          "RO",
          "SE",
          "SG",
          "SK",
          "SV",
          "TH",
          "TR",
          "TW",
          "US",
          "UY",
          "VN",
          "ZA"
        ],
        "disc_number": 1,
        "duration_ms": 178314,
        "episode": false,
        "explicit": false,
        "external_ids": {
          "isrc": "USE830930840"
        },
        "external_urls": {
          "spotify": "https://open.spotify.com/track/1KGjO8rHK7LaJ2QSrpZlPF"
        },
        "href": "https://api.spotify.com/v1/tracks/1KGjO8rHK7LaJ2QSrpZlPF",
        "id": "1KGjO8rHK7LaJ2QSrpZlPF",
        "is_local": false,
        "name": "DKC - Island Swing",
        "popularity": 33,
        "preview_url": "https://p.scdn.co/mp3-preview/72b86b6429d006755a9edb3ab1d02316eaf757ef?cid=774b29d4f13844c495f206cafdad9c86",
        "track": true,
        "track_number": 2,
        "type": "track",
        "uri": "spotify:track:1KGjO8rHK7LaJ2QSrpZlPF"
      },
      "video_thumbnail": {
        "url": null
      }
    },
    {
      "added_at": "2014-08-19T22:02:35Z",
      "added_by": {
        "external_urls": {
          "spotify": "https://open.spotify.com/user/ddelapp"
        },
        "href": "https://api.spotify.com/v1/users/ddelapp",
        "id": "ddelapp",
        "type": "user",
        "uri": "spotify:user:ddelapp"
      },
      "is_local": false,
      "primary_color": null,
      "track": {
        "album": {
          "album_type": "album",
          "artists": [
            {
              "external_urls": {
                "spotify": "https://open.spotify.com/artist/1LgVvBvmQm48GExZDH322C"
              },
              "href": "https://api.spotify.com/v1/artists/1LgVvBvmQm48GExZDH322C",
              "id": "1LgVvBvmQm48GExZDH322C",
              "name": "Good Knight Productions",
              "type": "artist",
              "uri": "spotify:artist:1LgVvBvmQm48GExZDH322C"
            }
          ],
          "available_markets": [
            "AD",
            "AR",
            "AT",
            "AU",
            "BE",
            "BG",
            "BO",
            "BR",
            "CA",
            "CH",
            "CL",
            "CO",
            "CR",
            "CY",
            "CZ",
            "DE",
            "DK",
            "DO",
            "EC",
            "EE",
            "ES",
            "FI",
            "FR",
            "GB",
            "GR",
            "GT",
            "HK",
            "HN",
            "HU",
            "ID",
            "IE",
            "IL",
            "IS",
            "IT",
            "JP",
            "LI",
            "LT",
            "LU",
            "LV",
            "MC",
            "MT",
            "MX",
            "MY",
            "NI",
            "NL",
            "NO",
            "NZ",
            "PA",
            "PE",
            "PH",
            "PL",
            "PT",
            "PY",
            "RO",
            "SE",
            "SG",
            "SK",
            "SV",
            "TH",
            "TR",
            "TW",
            "US",
            "UY",
            "VN",
            "ZA"
          ],
          "external_urls": {
            "spotify": "https://open.spotify.com/album/0oI62zS46c7zIHMj7BJyBv"
          },
          "href": "https://api.spotify.com/v1/albums/0oI62zS46c7zIHMj7BJyBv",
          "id": "0oI62zS46c7zIHMj7BJyBv",
          "images": [
            {
              "height": 640,
              "url": "https://i.scdn.co/image/536de2f53ecb1a188d09034b20199a2a97c9b361",
              "width": 640
            },
            {
              "height": 300,
              "url": "https://i.scdn.co/image/417f84c85ef577c39b115fc091342302f87e3142",
              "width": 300
            },
            {
              "height": 64,
              "url": "https://i.scdn.co/image/2cc4b802c9eb0b30473fe0ac987e975f82a3e5b0",
              "width": 64
            }
          ],
          "name": "Donkey Kong Country Vol.1",
          "release_date": "2014-07-25",
          "release_date_precision": "day",
          "type": "album",
          "uri": "spotify:album:0oI62zS46c7zIHMj7BJyBv"
        },
        "artists": [
          {
            "external_urls": {
              "spotify": "https://open.spotify.com/artist/1LgVvBvmQm48GExZDH322C"
            },
            "href": "https://api.spotify.com/v1/artists/1LgVvBvmQm48GExZDH322C",
            "id": "1LgVvBvmQm48GExZDH322C",
            "name": "Good Knight Productions",
            "type": "artist",
            "uri": "spotify:artist:1LgVvBvmQm48GExZDH322C"
          }
        ],
        "available_markets": [
          "AD",
          "AR",
          "AT",
          "AU",
          "BE",
          "BG",
          "BO",
          "BR",
          "CA",
          "CH",
          "CL",
          "CO",
          "CR",
          "CY",
          "CZ",
          "DE",
          "DK",
          "DO",
          "EC",
          "EE",
          "ES",
          "FI",
          "FR",
          "GB",
          "GR",
          "GT",
          "HK",
          "HN",
          "HU",
          "ID",
          "IE",
          "IL",
          "IS",
          "IT",
          "JP",
          "LI",
          "LT",
          "LU",
          "LV",
          "MC",
          "MT",
          "MX",
          "MY",
          "NI",
          "NL",
          "NO",
          "NZ",
          "PA",
          "PE",
          "PH",
          "PL",
          "PT",
          "PY",
          "RO",
          "SE",
          "SG",
          "SK",
          "SV",
          "TH",
          "TR",
          "TW",
          "US",
          "UY",
          "VN",
          "ZA"
        ],
        "disc_number": 1,
        "duration_ms": 153750,
        "episode": false,
        "explicit": false,
        "external_ids": {
          "isrc": "USE830930841"
        },
        "external_urls": {
          "spotify": "https://open.spotify.com/track/1NbzIGwEVbYhIaDZ8cX1XZ"
        },
        "href": "https://api.spotify.com/v1/tracks/1NbzIGwEVbYhIaDZ8cX1XZ",
        "id": "1NbzIGwEVbYhIaDZ8cX1XZ",
        "is_local": false,
        "name": "DKC - Simian Segue",
        "popularity": 26,
        "preview_url": "https://p.scdn.co/mp3-preview/1997a02c5e8154a8deaacf371c8849fc006f71c3?cid=774b29d4f13844c495f206cafdad9c86",
        "track": true,
        "track_number": 3,
        "type": "track",
        "uri": "spotify:track:1NbzIGwEVbYhIaDZ8cX1XZ"
      },
      "video_thumbnail": {
        "url": null
      }
    }
  ],
  "limit": 3,
  "next": "https://api.spotify.com/v1/users/ddelapp/playlists/0HM6i5SUouetTNY9dslhtC/tracks?offset=3&limit=3",
  "offset": 0,
  "previous": null,
  "total": 84
}